^U:\VISUAL_PROJECTS\1ST_PRJ\HELLOWORLD\DEBUG\HELLOWORLD.OBJ
C:\PROGRAM FILES (X86)\WINDOWS KITS\10\LIB\10.0.18362.0\UM\X86\KERNEL32.LIB
C:\PROGRAM FILES (X86)\WINDOWS KITS\10\LIB\10.0.18362.0\UM\X86\USER32.LIB
C:\PROGRAM FILES (X86)\WINDOWS KITS\10\LIB\10.0.18362.0\UM\X86\GDI32.LIB
C:\PROGRAM FILES (X86)\WINDOWS KITS\10\LIB\10.0.18362.0\UM\X86\WINSPOOL.LIB
C:\PROGRAM FILES (X86)\WINDOWS KITS\10\LIB\10.0.18362.0\UM\X86\COMDLG32.LIB
C:\PROGRAM FILES (X86)\WINDOWS KITS\10\LIB\10.0.18362.0\UM\X86\ADVAPI32.LIB
C:\PROGRAM FILES (X86)\WINDOWS KITS\10\LIB\10.0.18362.0\UM\X86\SHELL32.LIB
C:\PROGRAM FILES (X86)\WINDOWS KITS\10\LIB\10.0.18362.0\UM\X86\OLE32.LIB
C:\PROGRAM FILES (X86)\WINDOWS KITS\10\LIB\10.0.18362.0\UM\X86\OLEAUT32.LIB
C:\PROGRAM FILES (X86)\WINDOWS KITS\10\LIB\10.0.18362.0\UM\X86\UUID.LIB
C:\PROGRAM FILES (X86)\WINDOWS KITS\10\LIB\10.0.18362.0\UM\X86\ODBC32.LIB
C:\PROGRAM FILES (X86)\WINDOWS KITS\10\LIB\10.0.18362.0\UM\X86\ODBCCP32.LIB
U:\VISUAL_PROJECTS\1ST_PRJ\HELLOWORLD\DEBUG\HELLOWORLD.OBJ
C:\WINDOWS\SYSTEM32\TZRES.DLL
C:\WINDOWS\GLOBALIZATION\SORTING\SORTDEFAULT.NLS
U:\MICROSOFT VISUALSTUDIO\2017\VC\TOOLS\MSVC\14.26.28801\LIB\X86\MSVCPRTD.LIB
U:\MICROSOFT VISUALSTUDIO\2017\VC\TOOLS\MSVC\14.26.28801\LIB\X86\MSVCRTD.LIB
U:\MICROSOFT VISUALSTUDIO\2017\VC\TOOLS\MSVC\14.26.28801\LIB\X86\OLDNAMES.LIB
U:\MICROSOFT VISUALSTUDIO\2017\VC\TOOLS\MSVC\14.26.28801\LIB\X86\VCRUNTIMED.LIB
C:\PROGRAM FILES (X86)\WINDOWS KITS\10\LIB\10.0.18362.0\UCRT\X86\UCRTD.LIB
U:\MICROSOFT VISUALSTUDIO\2017\VC\TOOLS\MSVC\14.26.28801\BIN\HOSTX86\X86\VCTIP.EXE
